…
``` r
## Create an output vector with 100 empty spots
output = vector("list", length = 100)

##100 hundred times I ran sim_mean_sd with number of observations equals to 30 and save the output each time 
for (i in 1:100) {
  output[[i]] = sim_mean_sd(n_obs = 30)
  
}

## Create 1 dataframe with 100 rows binding 100 dataframes
bind_rows(output)
```

    ## # A tibble: 100 × 2
    ##    mu_hat sigma_hat
    ##     <dbl>     <dbl>
    ##  1   6.49      3.24
    ##  2   8.74      4.47
    ##  3   8.49      3.37
    ##  4   7.75      3.64
    ##  5   5.98      3.87
    ##  6   6.71      4.68
    ##  7   7.60      4.07
    ##  8   6.36      3.29
    ##  9   7.51      4.87
    ## 10   7.61      4.15
    ## # … with 90 more rows
…
